﻿{
  "dependencies": {
    "Microsoft.NETCore.UniversalWindowsPlatform": "5.0.0",
    "MvvmLightLibs": "5.3.0",
    "SQLite.Net-PCL": "3.1.1",
    "SQLiteNetExtensions": "1.3.0",
    "Xam.Plugin.Geolocator": "3.0.4",
    "Xam.Plugins.Forms.ImageCircle": "1.8.0.5",
    "Xamarin.Forms.Maps": "2.3.2.127"
  },
  "frameworks": {
    "uap10.0": {}
  },
  "runtimes": {
    "win10-arm": {},
    "win10-arm-aot": {},
    "win10-x86": {},
    "win10-x86-aot": {},
    "win10-x64": {},
    "win10-x64-aot": {}
  }
}